p 20 46
e 9 4 0.50 31
e 9 6 0.50 18
e 9 7 0.50 20
e 9 8 0.50 38
e 9 1 0.50 24
e 9 17 0.50 31
e 2 5 0.50 16
e 2 7 0.50 26
e 2 11 0.50 3
e 2 12 0.50 15
e 2 19 0.50 19
e 2 17 0.50 23
e 3 5 0.50 21
e 3 10 0.50 26
e 3 13 0.50 19
e 3 14 0.50 11
e 3 16 0.50 27
e 3 17 0.50 16
e 4 6 0.50 33
e 4 14 0.50 10
e 4 18 0.50 9
e 4 17 0.50 21
e 5 12 0.50 25
e 5 13 0.50 7
e 5 17 0.50 19
e 6 1 0.50 25
e 6 15 0.50 45
e 6 18 0.50 30
e 7 8 0.50 24
e 7 19 0.50 19
e 7 17 0.50 19
e 8 1 0.50 47
e 8 19 0.50 14
e 10 13 0.50 26
e 10 16 0.50 25
e 10 20 0.50 9
e 11 12 0.50 13
e 11 19 0.50 18
e 12 13 0.50 30
e 13 20 0.50 28
e 14 16 0.50 24
e 14 18 0.50 17
e 14 17 0.50 19
e 15 16 0.50 34
e 15 18 0.50 26
e 16 18 0.50 31
