p 20 44
e 1 6 0.40 10
e 1 15 0.40 9
e 2 3 0.40 21
e 2 7 0.40 23
e 3 4 0.40 8
e 3 7 0.40 12
e 3 9 0.40 40
e 3 16 0.40 17
e 4 7 0.40 14
e 4 16 0.40 9
e 4 18 0.40 14
e 5 14 0.40 44
e 5 19 0.40 38
e 5 12 0.40 13
e 6 9 0.40 22
e 6 15 0.40 7
e 7 20 0.40 29
e 7 18 0.40 7
e 8 13 0.40 17
e 8 14 0.40 23
e 8 15 0.40 45
e 8 17 0.40 22
e 8 19 0.40 4
e 9 13 0.40 47
e 9 15 0.40 27
e 9 16 0.40 26
e 10 11 0.40 22
e 10 17 0.40 20
e 10 12 0.40 25
e 11 20 0.40 7
e 11 17 0.40 35
e 11 18 0.40 31
e 20 18 0.40 30
e 13 15 0.40 49
e 13 16 0.40 32
e 13 17 0.40 13
e 13 18 0.40 29
e 14 15 0.40 48
e 14 19 0.40 19
e 16 18 0.40 19
e 17 18 0.40 33
e 17 19 0.40 24
e 17 12 0.40 29
e 19 12 0.40 39
