p 20 44
e 1 6 0.90 10
e 1 15 0.90 9
e 2 3 0.90 21
e 2 7 0.90 23
e 3 4 0.90 8
e 3 7 0.90 12
e 3 9 0.90 40
e 3 16 0.90 17
e 4 7 0.90 14
e 4 16 0.90 9
e 4 18 0.90 14
e 5 14 0.90 44
e 5 19 0.90 38
e 5 12 0.90 13
e 6 9 0.90 22
e 6 15 0.90 7
e 7 20 0.90 29
e 7 18 0.90 7
e 8 13 0.90 17
e 8 14 0.90 23
e 8 15 0.90 45
e 8 17 0.90 22
e 8 19 0.90 4
e 9 13 0.90 47
e 9 15 0.90 27
e 9 16 0.90 26
e 10 11 0.90 22
e 10 17 0.90 20
e 10 12 0.90 25
e 11 20 0.90 7
e 11 17 0.90 35
e 11 18 0.90 31
e 20 18 0.90 30
e 13 15 0.90 49
e 13 16 0.90 32
e 13 17 0.90 13
e 13 18 0.90 29
e 14 15 0.90 48
e 14 19 0.90 19
e 16 18 0.90 19
e 17 18 0.90 33
e 17 19 0.90 24
e 17 12 0.90 29
e 19 12 0.90 39
