p 50 94
e 1 49 0.700000 231
e 1 34 0.700000 184
e 1 25 0.700000 139
e 2 4 0.700000 81
e 2 5 0.700000 230
e 2 3 0.700000 200
e 2 32 0.700000 189
e 2 25 0.700000 332
e 3 32 0.700000 117
e 3 43 0.700000 146
e 3 12 0.700000 125
e 3 24 0.700000 200
e 3 33 0.700000 194
e 4 20 0.700000 348
e 4 32 0.700000 202
e 4 21 0.700000 433
e 4 9 0.700000 278
e 4 25 0.700000 400
e 5 34 0.700000 122
e 5 25 0.700000 220
e 5 24 0.700000 73
e 6 19 0.700000 171
e 6 10 0.700000 92
e 6 16 0.700000 125
e 7 43 0.700000 130
e 7 47 0.700000 89
e 8 18 0.700000 283
e 8 31 0.700000 188
e 8 11 0.700000 264
e 8 50 0.700000 141
e 8 14 0.700000 175
e 9 42 0.700000 199
e 9 20 0.700000 85
e 10 22 0.700000 36
e 11 42 0.700000 328
e 11 30 0.700000 45
e 11 18 0.700000 30
e 12 42 0.700000 139
e 12 40 0.700000 161
e 12 43 0.700000 170
e 12 32 0.700000 100
e 13 31 0.700000 20
e 13 47 0.700000 177
e 13 17 0.700000 162
e 13 39 0.700000 139
e 14 46 0.700000 140
e 15 27 0.700000 139
e 15 23 0.700000 61
e 15 22 0.700000 136
e 16 27 0.700000 182
e 17 42 0.700000 72
e 17 40 0.700000 42
e 18 37 0.700000 80
e 18 50 0.700000 408
e 19 22 0.700000 136
e 20 42 0.700000 213
e 20 37 0.700000 302
e 21 37 0.700000 247
e 22 35 0.700000 228
e 22 23 0.700000 172
e 23 35 0.700000 218
e 23 36 0.700000 149
e 24 26 0.700000 148
e 24 33 0.700000 41
e 25 34 0.700000 191
e 26 49 0.700000 130
e 26 33 0.700000 143
e 27 36 0.700000 85
e 28 47 0.700000 126
e 28 44 0.700000 28
e 28 35 0.700000 188
e 29 35 0.700000 126
e 29 36 0.700000 303
e 29 45 0.700000 70
e 29 48 0.700000 219
e 29 33 0.700000 232
e 30 42 0.700000 327
e 30 37 0.700000 41
e 31 42 0.700000 214
e 31 39 0.700000 150
e 33 48 0.700000 153
e 34 49 0.700000 194
e 35 45 0.700000 163
e 35 36 0.700000 272
e 36 38 0.700000 171
e 37 42 0.700000 323
e 38 48 0.700000 161
e 39 46 0.700000 172
e 40 41 0.700000 85
e 40 42 0.700000 76
e 43 45 0.700000 139
e 44 47 0.700000 141
e 44 46 0.700000 132
e 45 47 0.700000 128
