<?xml version="1.0" encoding="utf-8" standalone="no"?>
<!DOCTYPE svg PUBLIC "-//W3C//DTD SVG 1.1//EN"
  "http://www.w3.org/Graphics/SVG/1.1/DTD/svg11.dtd">
<!-- Created with matplotlib (http://matplotlib.org/) -->
<svg height="168pt" version="1.1" viewBox="0 0 247 168" width="247pt" xmlns="http://www.w3.org/2000/svg" xmlns:xlink="http://www.w3.org/1999/xlink">
 <defs>
  <style type="text/css">
*{stroke-linecap:butt;stroke-linejoin:round;stroke-miterlimit:100000;}
  </style>
 </defs>
 <g id="figure_1">
  <g id="patch_1">
   <path d="M 0 168.580364 
L 247.524125 168.580364 
L 247.524125 0 
L 0 0 
z
" style="fill:#ffffff;"/>
  </g>
  <g id="axes_1">
   <g id="patch_2">
    <path d="M 37.942958 134.0475 
L 235.561708 134.0475 
L 235.561708 22.5475 
L 37.942958 22.5475 
z
" style="fill:#ffffff;"/>
   </g>
   <g id="line2d_1">
    <path clip-path="url(#pebe2d7b3c2)" d="M 54.411187 125.44574 
L 87.347645 106.782266 
L 120.284104 73.666766 
L 153.220562 62.301896 
L 186.15702 54.127552 
L 219.093479 47.237781 
" style="fill:none;stroke:#a80054;stroke-linecap:square;stroke-width:0.75;"/>
    <defs>
     <path d="M 0 2 
C 0.530406 2 1.03916 1.789267 1.414214 1.414214 
C 1.789267 1.03916 2 0.530406 2 0 
C 2 -0.530406 1.789267 -1.03916 1.414214 -1.414214 
C 1.03916 -1.789267 0.530406 -2 0 -2 
C -0.530406 -2 -1.03916 -1.789267 -1.414214 -1.414214 
C -1.789267 -1.03916 -2 -0.530406 -2 0 
C -2 0.530406 -1.789267 1.03916 -1.414214 1.414214 
C -1.03916 1.789267 -0.530406 2 0 2 
z
" id="m5878666fc1" style="stroke:#a80054;stroke-width:0.5;"/>
    </defs>
    <g clip-path="url(#pebe2d7b3c2)">
     <use style="fill:#a80054;stroke:#a80054;stroke-width:0.5;" x="54.4111869792" xlink:href="#m5878666fc1" y="125.445739583"/>
     <use style="fill:#a80054;stroke:#a80054;stroke-width:0.5;" x="87.3476453125" xlink:href="#m5878666fc1" y="106.782265625"/>
     <use style="fill:#a80054;stroke:#a80054;stroke-width:0.5;" x="120.284103646" xlink:href="#m5878666fc1" y="73.666765625"/>
     <use style="fill:#a80054;stroke:#a80054;stroke-width:0.5;" x="153.220561979" xlink:href="#m5878666fc1" y="62.3018958333"/>
     <use style="fill:#a80054;stroke:#a80054;stroke-width:0.5;" x="186.157020313" xlink:href="#m5878666fc1" y="54.1275520833"/>
     <use style="fill:#a80054;stroke:#a80054;stroke-width:0.5;" x="219.093478646" xlink:href="#m5878666fc1" y="47.23778125"/>
    </g>
   </g>
   <g id="line2d_2">
    <path clip-path="url(#pebe2d7b3c2)" d="M 54.411187 125.646672 
L 87.347645 113.006521 
L 120.284104 93.474276 
L 153.220562 76.353219 
L 186.15702 61.153214 
L 219.093479 50.211115 
" style="fill:none;stroke:#5400a8;stroke-linecap:square;stroke-width:0.75;"/>
    <defs>
     <path d="M 0 2 
C 0.530406 2 1.03916 1.789267 1.414214 1.414214 
C 1.789267 1.03916 2 0.530406 2 0 
C 2 -0.530406 1.789267 -1.03916 1.414214 -1.414214 
C 1.03916 -1.789267 0.530406 -2 0 -2 
C -0.530406 -2 -1.03916 -1.789267 -1.414214 -1.414214 
C -1.789267 -1.03916 -2 -0.530406 -2 0 
C -2 0.530406 -1.789267 1.03916 -1.414214 1.414214 
C -1.03916 1.789267 -0.530406 2 0 2 
z
" id="m358b371883" style="stroke:#5400a8;stroke-width:0.5;"/>
    </defs>
    <g clip-path="url(#pebe2d7b3c2)">
     <use style="fill:#5400a8;stroke:#5400a8;stroke-width:0.5;" x="54.4111869792" xlink:href="#m358b371883" y="125.646671875"/>
     <use style="fill:#5400a8;stroke:#5400a8;stroke-width:0.5;" x="87.3476453125" xlink:href="#m358b371883" y="113.006520833"/>
     <use style="fill:#5400a8;stroke:#5400a8;stroke-width:0.5;" x="120.284103646" xlink:href="#m358b371883" y="93.4742760417"/>
     <use style="fill:#5400a8;stroke:#5400a8;stroke-width:0.5;" x="153.220561979" xlink:href="#m358b371883" y="76.35321875"/>
     <use style="fill:#5400a8;stroke:#5400a8;stroke-width:0.5;" x="186.157020313" xlink:href="#m358b371883" y="61.1532135417"/>
     <use style="fill:#5400a8;stroke:#5400a8;stroke-width:0.5;" x="219.093478646" xlink:href="#m358b371883" y="50.2111145833"/>
    </g>
   </g>
   <g id="line2d_3">
    <path clip-path="url(#pebe2d7b3c2)" d="M 54.411187 125.7965 
L 87.347645 114.219083 
L 120.284104 102.246771 
L 153.220562 89.476536 
L 186.15702 79.115167 
L 219.093479 70.032562 
" style="fill:none;stroke:#00a8a8;stroke-linecap:square;stroke-width:0.75;"/>
    <defs>
     <path d="M 0 2 
C 0.530406 2 1.03916 1.789267 1.414214 1.414214 
C 1.789267 1.03916 2 0.530406 2 0 
C 2 -0.530406 1.789267 -1.03916 1.414214 -1.414214 
C 1.03916 -1.789267 0.530406 -2 0 -2 
C -0.530406 -2 -1.03916 -1.789267 -1.414214 -1.414214 
C -1.789267 -1.03916 -2 -0.530406 -2 0 
C -2 0.530406 -1.789267 1.03916 -1.414214 1.414214 
C -1.03916 1.789267 -0.530406 2 0 2 
z
" id="m532fd76df7" style="stroke:#00a8a8;stroke-width:0.5;"/>
    </defs>
    <g clip-path="url(#pebe2d7b3c2)">
     <use style="fill:#00a8a8;stroke:#00a8a8;stroke-width:0.5;" x="54.4111869792" xlink:href="#m532fd76df7" y="125.7965"/>
     <use style="fill:#00a8a8;stroke:#00a8a8;stroke-width:0.5;" x="87.3476453125" xlink:href="#m532fd76df7" y="114.219083333"/>
     <use style="fill:#00a8a8;stroke:#00a8a8;stroke-width:0.5;" x="120.284103646" xlink:href="#m532fd76df7" y="102.246770833"/>
     <use style="fill:#00a8a8;stroke:#00a8a8;stroke-width:0.5;" x="153.220561979" xlink:href="#m532fd76df7" y="89.4765364583"/>
     <use style="fill:#00a8a8;stroke:#00a8a8;stroke-width:0.5;" x="186.157020313" xlink:href="#m532fd76df7" y="79.1151666667"/>
     <use style="fill:#00a8a8;stroke:#00a8a8;stroke-width:0.5;" x="219.093478646" xlink:href="#m532fd76df7" y="70.0325625"/>
    </g>
   </g>
   <g id="patch_3">
    <path d="M 37.942958 22.5475 
L 235.561708 22.5475 
" style="fill:none;stroke:#000000;stroke-linecap:square;stroke-linejoin:miter;stroke-width:0.5;"/>
   </g>
   <g id="patch_4">
    <path d="M 235.561708 134.0475 
L 235.561708 22.5475 
" style="fill:none;stroke:#000000;stroke-linecap:square;stroke-linejoin:miter;stroke-width:0.5;"/>
   </g>
   <g id="patch_5">
    <path d="M 37.942958 134.0475 
L 235.561708 134.0475 
" style="fill:none;stroke:#000000;stroke-linecap:square;stroke-linejoin:miter;stroke-width:0.5;"/>
   </g>
   <g id="patch_6">
    <path d="M 37.942958 134.0475 
L 37.942958 22.5475 
" style="fill:none;stroke:#000000;stroke-linecap:square;stroke-linejoin:miter;stroke-width:0.5;"/>
   </g>
   <g id="matplotlib.axis_1">
    <g id="xtick_1">
     <g id="line2d_4">
      <defs>
       <path d="M 0 0 
L 0 -4 
" id="md1914f480e" style="stroke:#000000;stroke-width:0.5;"/>
      </defs>
      <g>
       <use style="stroke:#000000;stroke-width:0.5;" x="37.9429578125" xlink:href="#md1914f480e" y="134.0475"/>
      </g>
     </g>
     <g id="line2d_5">
      <defs>
       <path d="M 0 0 
L 0 4 
" id="m496bd53889" style="stroke:#000000;stroke-width:0.5;"/>
      </defs>
      <g>
       <use style="stroke:#000000;stroke-width:0.5;" x="37.9429578125" xlink:href="#m496bd53889" y="22.5475"/>
      </g>
     </g>
     <g id="text_1">
      <text style="font-family:Open Sans;font-size:8.33px;font-style:normal;font-weight:400;text-anchor:middle;" transform="rotate(-0.000000, 37.942958, 144.376998)" x="37.9429578125" y="144.376998437">0</text>
     </g>
    </g>
    <g id="xtick_2">
     <g id="line2d_6">
      <g>
       <use style="stroke:#000000;stroke-width:0.5;" x="70.8794161458" xlink:href="#md1914f480e" y="134.0475"/>
      </g>
     </g>
     <g id="line2d_7">
      <g>
       <use style="stroke:#000000;stroke-width:0.5;" x="70.8794161458" xlink:href="#m496bd53889" y="22.5475"/>
      </g>
     </g>
     <g id="text_2">
      <text style="font-family:Open Sans;font-size:8.33px;font-style:normal;font-weight:400;text-anchor:middle;" transform="rotate(-0.000000, 70.879416, 144.376998)" x="70.8794161458" y="144.376998437">2</text>
     </g>
    </g>
    <g id="xtick_3">
     <g id="line2d_8">
      <g>
       <use style="stroke:#000000;stroke-width:0.5;" x="103.815874479" xlink:href="#md1914f480e" y="134.0475"/>
      </g>
     </g>
     <g id="line2d_9">
      <g>
       <use style="stroke:#000000;stroke-width:0.5;" x="103.815874479" xlink:href="#m496bd53889" y="22.5475"/>
      </g>
     </g>
     <g id="text_3">
      <text style="font-family:Open Sans;font-size:8.33px;font-style:normal;font-weight:400;text-anchor:middle;" transform="rotate(-0.000000, 103.815874, 144.376998)" x="103.815874479" y="144.376998437">4</text>
     </g>
    </g>
    <g id="xtick_4">
     <g id="line2d_10">
      <g>
       <use style="stroke:#000000;stroke-width:0.5;" x="136.752332813" xlink:href="#md1914f480e" y="134.0475"/>
      </g>
     </g>
     <g id="line2d_11">
      <g>
       <use style="stroke:#000000;stroke-width:0.5;" x="136.752332813" xlink:href="#m496bd53889" y="22.5475"/>
      </g>
     </g>
     <g id="text_4">
      <text style="font-family:Open Sans;font-size:8.33px;font-style:normal;font-weight:400;text-anchor:middle;" transform="rotate(-0.000000, 136.752333, 144.376998)" x="136.752332813" y="144.376998437">6</text>
     </g>
    </g>
    <g id="xtick_5">
     <g id="line2d_12">
      <g>
       <use style="stroke:#000000;stroke-width:0.5;" x="169.688791146" xlink:href="#md1914f480e" y="134.0475"/>
      </g>
     </g>
     <g id="line2d_13">
      <g>
       <use style="stroke:#000000;stroke-width:0.5;" x="169.688791146" xlink:href="#m496bd53889" y="22.5475"/>
      </g>
     </g>
     <g id="text_5">
      <text style="font-family:Open Sans;font-size:8.33px;font-style:normal;font-weight:400;text-anchor:middle;" transform="rotate(-0.000000, 169.688791, 144.376998)" x="169.688791146" y="144.376998437">8</text>
     </g>
    </g>
    <g id="xtick_6">
     <g id="line2d_14">
      <g>
       <use style="stroke:#000000;stroke-width:0.5;" x="202.625249479" xlink:href="#md1914f480e" y="134.0475"/>
      </g>
     </g>
     <g id="line2d_15">
      <g>
       <use style="stroke:#000000;stroke-width:0.5;" x="202.625249479" xlink:href="#m496bd53889" y="22.5475"/>
      </g>
     </g>
     <g id="text_6">
      <text style="font-family:Open Sans;font-size:8.33px;font-style:normal;font-weight:400;text-anchor:middle;" transform="rotate(-0.000000, 202.625249, 144.376998)" x="202.625249479" y="144.376998437">10</text>
     </g>
    </g>
    <g id="xtick_7">
     <g id="line2d_16">
      <g>
       <use style="stroke:#000000;stroke-width:0.5;" x="235.561707813" xlink:href="#md1914f480e" y="134.0475"/>
      </g>
     </g>
     <g id="line2d_17">
      <g>
       <use style="stroke:#000000;stroke-width:0.5;" x="235.561707813" xlink:href="#m496bd53889" y="22.5475"/>
      </g>
     </g>
     <g id="text_7">
      <text style="font-family:Open Sans;font-size:8.33px;font-style:normal;font-weight:400;text-anchor:middle;" transform="rotate(-0.000000, 235.561708, 144.376998)" x="235.561707813" y="144.376998437">12</text>
     </g>
    </g>
    <g id="text_8">
     <text style="font-family:Open Sans;font-size:10.0px;font-style:normal;font-weight:400;text-anchor:middle;" transform="rotate(-0.000000, 136.752333, 158.977239)" x="136.752332813" y="158.977239062">Questions</text>
    </g>
   </g>
   <g id="matplotlib.axis_2">
    <g id="ytick_1">
     <g id="line2d_18">
      <defs>
       <path d="M 0 0 
L 4 0 
" id="m55563722a2" style="stroke:#000000;stroke-width:0.5;"/>
      </defs>
      <g>
       <use style="stroke:#000000;stroke-width:0.5;" x="37.9429578125" xlink:href="#m55563722a2" y="134.0475"/>
      </g>
     </g>
     <g id="line2d_19">
      <defs>
       <path d="M 0 0 
L -4 0 
" id="mc0aab6b747" style="stroke:#000000;stroke-width:0.5;"/>
      </defs>
      <g>
       <use style="stroke:#000000;stroke-width:0.5;" x="235.561707813" xlink:href="#mc0aab6b747" y="134.0475"/>
      </g>
     </g>
     <g id="text_9">
      <text style="font-family:Open Sans;font-size:8.33px;font-style:normal;font-weight:400;text-anchor:end;" transform="rotate(-0.000000, 33.942958, 136.211348)" x="33.9429578125" y="136.211347656">0.0</text>
     </g>
    </g>
    <g id="ytick_2">
     <g id="line2d_20">
      <g>
       <use style="stroke:#000000;stroke-width:0.5;" x="37.9429578125" xlink:href="#m55563722a2" y="111.7475"/>
      </g>
     </g>
     <g id="line2d_21">
      <g>
       <use style="stroke:#000000;stroke-width:0.5;" x="235.561707813" xlink:href="#mc0aab6b747" y="111.7475"/>
      </g>
     </g>
     <g id="text_10">
      <text style="font-family:Open Sans;font-size:8.33px;font-style:normal;font-weight:400;text-anchor:end;" transform="rotate(-0.000000, 33.942958, 113.911348)" x="33.9429578125" y="113.911347656">0.2</text>
     </g>
    </g>
    <g id="ytick_3">
     <g id="line2d_22">
      <g>
       <use style="stroke:#000000;stroke-width:0.5;" x="37.9429578125" xlink:href="#m55563722a2" y="89.4475"/>
      </g>
     </g>
     <g id="line2d_23">
      <g>
       <use style="stroke:#000000;stroke-width:0.5;" x="235.561707813" xlink:href="#mc0aab6b747" y="89.4475"/>
      </g>
     </g>
     <g id="text_11">
      <text style="font-family:Open Sans;font-size:8.33px;font-style:normal;font-weight:400;text-anchor:end;" transform="rotate(-0.000000, 33.942958, 91.611348)" x="33.9429578125" y="91.6113476562">0.4</text>
     </g>
    </g>
    <g id="ytick_4">
     <g id="line2d_24">
      <g>
       <use style="stroke:#000000;stroke-width:0.5;" x="37.9429578125" xlink:href="#m55563722a2" y="67.1475"/>
      </g>
     </g>
     <g id="line2d_25">
      <g>
       <use style="stroke:#000000;stroke-width:0.5;" x="235.561707813" xlink:href="#mc0aab6b747" y="67.1475"/>
      </g>
     </g>
     <g id="text_12">
      <text style="font-family:Open Sans;font-size:8.33px;font-style:normal;font-weight:400;text-anchor:end;" transform="rotate(-0.000000, 33.942958, 69.311348)" x="33.9429578125" y="69.3113476562">0.6</text>
     </g>
    </g>
    <g id="ytick_5">
     <g id="line2d_26">
      <g>
       <use style="stroke:#000000;stroke-width:0.5;" x="37.9429578125" xlink:href="#m55563722a2" y="44.8475"/>
      </g>
     </g>
     <g id="line2d_27">
      <g>
       <use style="stroke:#000000;stroke-width:0.5;" x="235.561707813" xlink:href="#mc0aab6b747" y="44.8475"/>
      </g>
     </g>
     <g id="text_13">
      <text style="font-family:Open Sans;font-size:8.33px;font-style:normal;font-weight:400;text-anchor:end;" transform="rotate(-0.000000, 33.942958, 47.011348)" x="33.9429578125" y="47.0113476562">0.8</text>
     </g>
    </g>
    <g id="ytick_6">
     <g id="line2d_28">
      <g>
       <use style="stroke:#000000;stroke-width:0.5;" x="37.9429578125" xlink:href="#m55563722a2" y="22.5475"/>
      </g>
     </g>
     <g id="line2d_29">
      <g>
       <use style="stroke:#000000;stroke-width:0.5;" x="235.561707813" xlink:href="#mc0aab6b747" y="22.5475"/>
      </g>
     </g>
     <g id="text_14">
      <text style="font-family:Open Sans;font-size:8.33px;font-style:normal;font-weight:400;text-anchor:end;" transform="rotate(-0.000000, 33.942958, 24.711348)" x="33.9429578125" y="24.7113476562">1.0</text>
     </g>
    </g>
    <g id="text_15">
     <text style="font-family:Open Sans;font-size:10.0px;font-style:normal;font-weight:400;text-anchor:middle;" transform="rotate(-90.000000, 14.798438, 78.297500)" x="14.7984375" y="78.2975">Reward</text>
    </g>
   </g>
   <g id="legend_1">
    <g id="line2d_30">
     <path d="M 55.370486 13.945998 
L 62.867486 13.945998 
" style="fill:none;stroke:#a80054;stroke-linecap:square;stroke-width:0.75;"/>
    </g>
    <g id="line2d_31">
     <g>
      <use style="fill:#a80054;stroke:#a80054;stroke-width:0.5;" x="55.3704859375" xlink:href="#m5878666fc1" y="13.9459984375"/>
      <use style="fill:#a80054;stroke:#a80054;stroke-width:0.5;" x="62.8674859375" xlink:href="#m5878666fc1" y="13.9459984375"/>
     </g>
    </g>
    <g id="text_16">
     <text style="font-family:Open Sans;font-size:8.33px;font-style:normal;font-weight:400;text-anchor:start;" transform="rotate(-0.000000, 70.364486, 16.861498)" x="70.3644859375" y="16.8614984375">learned</text>
    </g>
    <g id="line2d_32">
     <path d="M 112.565047 13.945998 
L 120.062047 13.945998 
" style="fill:none;stroke:#5400a8;stroke-linecap:square;stroke-width:0.75;"/>
    </g>
    <g id="line2d_33">
     <g>
      <use style="fill:#5400a8;stroke:#5400a8;stroke-width:0.5;" x="112.565046875" xlink:href="#m358b371883" y="13.9459984375"/>
      <use style="fill:#5400a8;stroke:#5400a8;stroke-width:0.5;" x="120.062046875" xlink:href="#m358b371883" y="13.9459984375"/>
     </g>
    </g>
    <g id="text_17">
     <text style="font-family:Open Sans;font-size:8.33px;font-style:normal;font-weight:400;text-anchor:start;" transform="rotate(-0.000000, 127.559047, 16.861498)" x="127.559046875" y="16.8614984375">myopic</text>
    </g>
    <g id="line2d_34">
     <path d="M 168.209447 13.945998 
L 175.706447 13.945998 
" style="fill:none;stroke:#00a8a8;stroke-linecap:square;stroke-width:0.75;"/>
    </g>
    <g id="line2d_35">
     <g>
      <use style="fill:#00a8a8;stroke:#00a8a8;stroke-width:0.5;" x="168.209446875" xlink:href="#m532fd76df7" y="13.9459984375"/>
      <use style="fill:#00a8a8;stroke:#00a8a8;stroke-width:0.5;" x="175.706446875" xlink:href="#m532fd76df7" y="13.9459984375"/>
     </g>
    </g>
    <g id="text_18">
     <text style="font-family:Open Sans;font-size:8.33px;font-style:normal;font-weight:400;text-anchor:start;" transform="rotate(-0.000000, 183.203447, 16.861498)" x="183.203446875" y="16.8614984375">random</text>
    </g>
   </g>
  </g>
 </g>
 <defs>
  <clipPath id="pebe2d7b3c2">
   <rect height="111.5" width="197.61875" x="37.9429578125" y="22.5475"/>
  </clipPath>
 </defs>
</svg>
